Taller práctico de Web Scraping con R Parte 1
…
12.5 Manejo básico de errores

En la práctica, algunas páginas fallan por problemas de conexión, cambios en la web o errores temporales. Conviene envolver el scraping en una función segura.

R

# Creamos una versión segura de la función de scraping
scrapear_libros_seguro <- purrr::possibly(scrapear_libros, otherwise = tibble())

# Aplicamos la función segura a varias URLs del catálogo
resultado_seguro <- map_dfr(urls_books, scrapear_libros_seguro)
# Mostramos el resultado combinado
resultado_seguro

## # A tibble: 60 × 6
##    url_origen                         titulo precio disponibilidad rating enlace
##    <chr>                              <chr>   <dbl> <chr>          <chr>  <chr> 
##  1 https://books.toscrape.com/catalo… A Lig…   51.8 In stock       Three  https…
##  2 https://books.toscrape.com/catalo… Tippi…   53.7 In stock       One    https…
##  3 https://books.toscrape.com/catalo… Soumi…   50.1 In stock       One    https…
##  4 https://books.toscrape.com/catalo… Sharp…   47.8 In stock       Four   https…
##  5 https://books.toscrape.com/catalo… Sapie…   54.2 In stock       Five   https…
##  6 https://books.toscrape.com/catalo… The R…   22.6 In stock       One    https…
##  7 https://books.toscrape.com/catalo… The D…   33.3 In stock       Four   https…
##  8 https://books.toscrape.com/catalo… The C…   17.9 In stock       Three  https…
##  9 https://books.toscrape.com/catalo… The B…   22.6 In stock       Four   https…
## 10 https://books.toscrape.com/catalo… The B…   52.2 In stock       One    https…
## # ℹ 50 more rows
…
